<?xml version="1.0" encoding="utf-8"?>
<!-- Generator: Adobe Illustrator 22.0.1, SVG Export Plug-In . SVG Version: 6.00 Build 0)  -->
<svg version="1.1" id="Warstwa_1" xmlns="http://www.w3.org/2000/svg" xmlns:xlink="http://www.w3.org/1999/xlink" x="0px" y="0px"
	 viewBox="0 0 30 27" style="enable-background:new 0 0 30 27;" xml:space="preserve">
<style type="text/css">
	.st0{fill:#E20C18;}
</style>
<g>
	<path class="st0" d="M15,4C9.2,4,4.5,8.7,4.5,14.5S9.2,25,15,25s10.5-4.7,10.5-10.5S20.8,4,15,4z M15,23.8c-5.1,0-9.3-4.2-9.3-9.3
		c0-5.1,4.2-9.3,9.3-9.3c5.1,0,9.3,4.2,9.3,9.3C24.3,19.6,20.1,23.8,15,23.8z"/>
	<g>
		<path class="st0" d="M13.9,10.2c0-0.6,0.4-1,1.1-1c0.7,0,1.1,0.3,1.1,1c0,0.3-0.1,0.5-0.3,0.7c-0.2,0.2-0.4,0.3-0.8,0.3
			C14.3,11.2,13.9,10.9,13.9,10.2z M16,19.3h-2v-7.2h2V19.3z"/>
	</g>
</g>
</svg>
