<?xml version="1.0" encoding="UTF-8"?>
<!-- Generator: Adobe Illustrator 21.0.2, SVG Export Plug-In . SVG Version: 6.00 Build 0)  -->
<svg version="1.1" id="Warstwa_1" xmlns="http://www.w3.org/2000/svg" xmlns:xlink="http://www.w3.org/1999/xlink" x="0px" y="0px" viewBox="0 0 336.6 72" style="enable-background:new 0 0 336.6 72;" xml:space="preserve">
<style type="text/css">
	.st0{fill:#979797;}
</style>
<title>Zasób 1</title>
<g id="Warstwa_2">
	<g id="Warstwa_1-2">
		<path class="st0" d="M330.4,5.9c0-1.8,0.3-2.6,0.8-2.6s0.8,0.8,0.8,2.6s-0.3,2.6-0.8,2.6S330.4,7.6,330.4,5.9 M329.4,5.9    c0,2.5,0.6,3.7,1.7,3.7s1.7-1.2,1.7-3.7s-0.6-3.7-1.7-3.7S329.4,3.4,329.4,5.9 M334.7,7.3c0-0.9,0.2-1.3,0.5-1.3s0.5,0.4,0.5,1.3    s-0.2,1.2-0.5,1.2S334.7,8.2,334.7,7.3 M334.8,4c0-0.6,0.1-0.8,0.3-0.8s0.3,0.2,0.3,0.8s-0.1,0.9-0.3,0.9S334.8,4.7,334.8,4     M334,3.8c-0.1,0.6,0.1,1.2,0.6,1.6c-0.5,0.2-0.8,0.7-0.8,1.9c0,1.6,0.6,2.2,1.5,2.2s1.4-0.6,1.5-2.1V7.2c0-1.2-0.4-1.7-0.8-1.8    c0.4-0.4,0.7-1,0.6-1.6c0-1.1-0.5-1.6-1.2-1.6S334,2.7,334,3.8 M320,4.8c0,1.6,0.9,2.7,2.2,2.7c0.7,0,1.4-0.3,1.7-0.9l-0.7-0.5    c-0.2,0.3-0.6,0.5-1,0.5c-0.8,0-1.4-0.8-1.4-1.8s0.5-1.9,1.3-1.9c0.4,0,0.8,0.2,1,0.5L324,3c-0.3-0.7-1-1-1.8-1    C320.9,2,320,3.2,320,4.8 M327.5,2.8c0,0.4,0.2,0.7,0.6,0.7c0,0,0,0,0,0h0.2c0,0.5-0.2,0.6-0.5,0.7v0.2c0.6-0.1,0.9-0.7,0.9-1.6    c0.1-0.3-0.1-0.7-0.5-0.7c-0.3-0.1-0.7,0.1-0.7,0.5C327.5,2.6,327.5,2.7,327.5,2.8 M0,0.1v53.5c0,8.5,9,18,18,18.3h54V54.1    c0,0,0-18-18-18l0,0v-18c0-8.8-9-18-18-18L0,0.1z M81,0.1v53.5c0,8.5,9,18,18,18.3h54v-54c0-8.8-9-17.8-18-17.8L81,0.1z M216,0    c-9,0-18,9-18,17.8C198,9,189,0,180,0h-18v53.5c0,8.5,9,18,18,18.3l18,0.1V54c0,8.5,9,18,18,18h18V53.8c0-8.8-9-17.8-18-17.8    c9,0,18-9.5,18-18V0H216z M243,0v53.5c0,8.5,9,18,18,18.3l54,0.1V54c0,0,0-18-18-18h18V17.8C315,9,306,0,297,0H243z M318.3,4.8    c0-2.1,1.7-3.9,3.9-3.9c2.1,0,3.9,1.7,3.9,3.9c0,2.1-1.7,3.9-3.9,3.9c0,0,0,0,0,0C320,8.7,318.3,7,318.3,4.8    C318.3,4.8,318.3,4.8,318.3,4.8 M322.1,0c-2.6,0-4.7,2.2-4.7,4.8c0,0,0,0,0,0c0,2.6,2.1,4.7,4.7,4.7s4.7-2.1,4.7-4.7    C326.9,2.2,324.8,0,322.1,0C322.2,0,322.2,0,322.1,0z"/>
	</g>
</g>
</svg>