<?xml version="1.0" encoding="utf-8"?>
<!-- Generator: Adobe Illustrator 21.0.2, SVG Export Plug-In . SVG Version: 6.00 Build 0)  -->
<svg version="1.1" id="Warstwa_1" xmlns="http://www.w3.org/2000/svg" xmlns:xlink="http://www.w3.org/1999/xlink" x="0px" y="0px"
	 viewBox="0 0 486.9 113.2" style="enable-background:new 0 0 486.9 113.2;" xml:space="preserve">
<style type="text/css">
	.st0{fill:#289F57;}
	.st1{fill:#FFFFFF;}
</style>
<title>pir-3</title>
<g id="Warstwa_2">
	<g id="Warstwa_1-2">
		<polygon class="st0" points="0,113.2 486.9,113.2 417.3,0 69.6,0 		"/>
	</g>
</g>
<g>
	<path class="st1" d="M222.1,92.2c0,0,0,0.1,0,0.2l-2.1,8.3c0,0.1-0.1,0.2-0.2,0.2c-0.1,0-0.3,0.1-0.5,0.1h-0.9
		c-0.2,0-0.4,0-0.5-0.1c-0.1,0-0.2-0.1-0.2-0.2l-1.1-4.5l-0.2-0.9l-0.2,0.9l-1.1,4.5c0,0.1-0.1,0.2-0.2,0.2c-0.1,0-0.3,0.1-0.5,0.1
		h-0.9c-0.4,0-0.7-0.1-0.7-0.3l-2.1-8.3c0-0.1,0-0.1,0-0.2c0-0.2,0.3-0.3,0.8-0.3h0.3c0.5,0,0.8,0.1,0.9,0.4l1,4.2l0.3,1.2
		c0,0.1,0.1,0.4,0.1,0.7c0.1-0.4,0.1-0.8,0.3-1.2c0.1-0.4,0.2-0.6,0.2-0.7l1.1-4.3c0-0.1,0.1-0.2,0.2-0.2s0.3-0.1,0.5-0.1h0.5
		c0.2,0,0.4,0,0.5,0.1c0.1,0,0.2,0.1,0.2,0.2l1,4.3c0.1,0.6,0.3,1.3,0.4,2l0.3-1.1l0.2-0.8l1-4.2c0.1-0.3,0.4-0.4,0.9-0.4h0.1
		C221.8,91.9,222.1,92,222.1,92.2z"/>
	<path class="st1" d="M226.8,91.9c0.4,0.1,0.6,0.2,0.8,0.3s0.3,0.3,0.3,0.4c0,0.1,0,0.3-0.1,0.5c-0.1,0.2-0.2,0.3-0.3,0.5
		c-0.1,0.1-0.2,0.2-0.3,0.2c0,0-0.1,0-0.3-0.1c-0.2-0.1-0.3-0.1-0.5-0.2c-0.2,0-0.4-0.1-0.7-0.1c-0.5,0-0.8,0.1-0.9,0.2
		c-0.2,0.1-0.3,0.3-0.3,0.5c0,0.3,0.1,0.6,0.3,0.7c0.2,0.2,0.6,0.3,1.1,0.5c0.5,0.2,0.9,0.4,1.2,0.6s0.6,0.5,0.8,0.8
		c0.2,0.4,0.3,0.8,0.3,1.3c0,0.7-0.1,1.2-0.4,1.6c-0.3,0.4-0.6,0.7-1.1,0.9s-0.9,0.3-1.4,0.3c-0.6,0-1.2-0.1-1.6-0.2
		c-0.5-0.1-0.8-0.3-1.1-0.5c-0.2-0.2-0.4-0.4-0.4-0.5c0-0.1,0-0.3,0.1-0.5c0.1-0.2,0.2-0.3,0.3-0.5s0.2-0.2,0.3-0.2
		c0,0,0.2,0,0.4,0.1c0.3,0.1,0.5,0.2,0.7,0.3c0.2,0.1,0.5,0.1,0.8,0.1c0.3,0,0.6-0.1,0.9-0.2c0.2-0.1,0.4-0.4,0.4-0.7
		c0-0.3-0.1-0.5-0.3-0.7c-0.2-0.2-0.6-0.3-1.1-0.5l-0.6-0.3c-0.5-0.3-1-0.6-1.3-1s-0.5-0.9-0.5-1.6c0-0.6,0.1-1.1,0.4-1.5
		s0.7-0.7,1.1-0.9c0.5-0.2,1-0.3,1.5-0.3C226,91.8,226.4,91.8,226.8,91.9z"/>
	<path class="st1" d="M235.9,92.1c0,0.1,0,0.2-0.1,0.3l-2.5,3.8l2.8,4.4c0.1,0.1,0.1,0.2,0.1,0.3c0,0.1-0.2,0.2-0.7,0.2h-0.8
		c-0.4,0-0.7-0.1-0.8-0.2l-2.4-4l-0.1,0v3.8c0,0.3-0.3,0.4-0.8,0.4h-0.5c-0.5,0-0.8-0.1-0.8-0.4v-8.3c0-0.3,0.3-0.4,0.8-0.4h0.5
		c0.5,0,0.8,0.1,0.8,0.4v3.5l0.1,0l2.3-3.7c0.1-0.2,0.4-0.2,0.8-0.2h0.6C235.6,91.9,235.9,91.9,235.9,92.1z"/>
	<path class="st1" d="M241.1,92.1l2.9,8.4c0,0.1,0,0.2,0,0.2c0,0.2-0.2,0.3-0.7,0.3h-0.6c-0.4,0-0.7-0.1-0.7-0.3l-0.5-1.6h-3.1
		l-0.5,1.6c-0.1,0.2-0.3,0.3-0.6,0.3h-0.5c-0.5,0-0.8-0.1-0.8-0.3c0,0,0-0.1,0.1-0.2l2.9-8.4c0.1-0.2,0.3-0.3,0.7-0.3h0.7
		C240.8,91.9,241,92,241.1,92.1z M240,94.3c0,0.1,0,0.2-0.1,0.3c0,0.2-0.1,0.3-0.1,0.5l-0.8,2.3h1.9l-0.7-2.3
		C240.2,95,240.1,94.7,240,94.3L240,94.3z"/>
	<path class="st1" d="M251.4,92.4c0.1,0.3,0.2,0.5,0.2,0.7c0,0.1,0,0.1,0,0.1l-4.3,6.1h4c0.1,0,0.2,0.1,0.3,0.2
		c0.1,0.1,0.1,0.3,0.1,0.5v0.4c0,0.2,0,0.4-0.1,0.5c-0.1,0.1-0.2,0.2-0.3,0.2h-6.3c-0.1,0-0.2-0.1-0.3-0.4c-0.1-0.3-0.2-0.5-0.2-0.7
		c0-0.1,0-0.1,0-0.1l4.4-6.1h-3.6c-0.1,0-0.2-0.1-0.3-0.2c-0.1-0.1-0.1-0.3-0.1-0.5v-0.4c0-0.2,0-0.4,0.1-0.5
		c0.1-0.1,0.2-0.2,0.3-0.2h5.9C251.1,91.9,251.3,92.1,251.4,92.4z"/>
	<path class="st1" d="M257.1,92.1l2.9,8.4c0,0.1,0,0.2,0,0.2c0,0.2-0.2,0.3-0.7,0.3h-0.6c-0.4,0-0.7-0.1-0.7-0.3l-0.5-1.6h-3.1
		l-0.5,1.6c-0.1,0.2-0.3,0.3-0.6,0.3h-0.5c-0.5,0-0.8-0.1-0.8-0.3c0,0,0-0.1,0.1-0.2l2.9-8.4c0.1-0.2,0.3-0.3,0.7-0.3h0.7
		C256.8,91.9,257,92,257.1,92.1z M256,94.3c0,0.1,0,0.2-0.1,0.3c0,0.2-0.1,0.3-0.1,0.5l-0.8,2.3h1.9l-0.7-2.3
		C256.1,95,256.1,94.7,256,94.3L256,94.3z"/>
	<path class="st1" d="M268.4,92.3v8.3c0,0.3-0.3,0.4-0.8,0.4h-0.5c-0.2,0-0.4,0-0.5-0.1c-0.1,0-0.3-0.1-0.3-0.3l-3.5-5.3v5.3
		c0,0.3-0.3,0.4-0.8,0.4h-0.4c-0.5,0-0.8-0.1-0.8-0.4v-8.3c0-0.3,0.3-0.4,0.8-0.4h0.6c0.2,0,0.4,0,0.5,0.1c0.1,0,0.3,0.1,0.3,0.3
		l3.1,4.7l0.4,0.5v-5.2c0-0.3,0.3-0.4,0.8-0.4h0.4C268.2,91.9,268.4,92,268.4,92.3z"/>
	<path class="st1" d="M275.8,92.1c0.1,0.1,0.1,0.3,0.1,0.5V93c0,0.2,0,0.4-0.1,0.5c-0.1,0.1-0.2,0.2-0.3,0.2h-3.3v1.9h2.9
		c0.1,0,0.2,0.1,0.3,0.2c0.1,0.1,0.1,0.3,0.1,0.5v0.4c0,0.2,0,0.4-0.1,0.5c-0.1,0.1-0.2,0.2-0.3,0.2h-2.9v2.1h3.3
		c0.1,0,0.2,0.1,0.3,0.2c0.1,0.1,0.1,0.3,0.1,0.5v0.4c0,0.2,0,0.4-0.1,0.5c-0.1,0.1-0.2,0.2-0.3,0.2h-4.8c-0.2,0-0.3,0-0.4-0.1
		c-0.1-0.1-0.1-0.2-0.1-0.4v-8.1c0-0.2,0-0.3,0.1-0.4c0.1-0.1,0.2-0.1,0.4-0.1h4.8C275.6,91.9,275.7,92,275.8,92.1z"/>
</g>
</svg>
