<?xml version="1.0" encoding="utf-8"?>
<!-- Generator: Adobe Illustrator 16.0.0, SVG Export Plug-In . SVG Version: 6.00 Build 0)  -->
<!DOCTYPE svg PUBLIC "-//W3C//DTD SVG 1.1//EN" "http://www.w3.org/Graphics/SVG/1.1/DTD/svg11.dtd">
<svg version="1.1" id="Warstwa_1" xmlns="http://www.w3.org/2000/svg" xmlns:xlink="http://www.w3.org/1999/xlink" x="0px" y="0px"
	 width="30px" height="27px" viewBox="0 0 30 27" enable-background="new 0 0 30 27" xml:space="preserve">
<g>
	<path fill="#E20C18" d="M23.945,5.935H6.755c-0.776,0-1.406,0.629-1.406,1.406v11.857c0,0.775,0.63,1.405,1.406,1.405h17.19
		c0.775,0,1.405-0.63,1.405-1.405V7.34C25.351,6.564,24.721,5.935,23.945,5.935L23.945,5.935z M24.685,19.197
		c0,0.407-0.332,0.739-0.739,0.739H6.755c-0.408,0-0.739-0.332-0.739-0.739V7.34c0-0.408,0.331-0.738,0.739-0.738h17.19
		c0.407,0,0.739,0.33,0.739,0.738V19.197z M24.685,19.197"/>
	<path fill="#E20C18" d="M10.683,15.602h-3c-0.186,0-0.334,0.15-0.334,0.334c0,0.185,0.148,0.334,0.334,0.334h3
		c0.184,0,0.334-0.149,0.334-0.334C11.017,15.752,10.867,15.602,10.683,15.602L10.683,15.602z M10.683,15.602"/>
	<path fill="#E20C18" d="M15.017,15.602h-3c-0.184,0-0.334,0.15-0.334,0.334c0,0.185,0.15,0.334,0.334,0.334h3
		c0.185,0,0.333-0.149,0.333-0.334C15.35,15.752,15.201,15.602,15.017,15.602L15.017,15.602z M15.017,15.602"/>
	<path fill="#E20C18" d="M8.016,17.268H7.684c-0.186,0-0.334,0.151-0.334,0.335s0.148,0.333,0.334,0.333h0.332
		c0.186,0,0.333-0.149,0.333-0.333S8.201,17.268,8.016,17.268L8.016,17.268z M8.016,17.268"/>
	<path fill="#E20C18" d="M10.016,17.268H9.35c-0.186,0-0.333,0.151-0.333,0.335s0.148,0.333,0.333,0.333h0.666
		c0.184,0,0.333-0.149,0.333-0.333S10.2,17.268,10.016,17.268L10.016,17.268z M10.016,17.268"/>
	<path fill="#E20C18" d="M11.683,17.268h-0.333c-0.184,0-0.332,0.151-0.332,0.335s0.148,0.333,0.332,0.333h0.333
		c0.184,0,0.334-0.149,0.334-0.333S11.867,17.268,11.683,17.268L11.683,17.268z M11.683,17.268"/>
	<path fill="#E20C18" d="M13.684,17.268h-0.668c-0.184,0-0.332,0.151-0.332,0.335s0.148,0.333,0.332,0.333h0.668
		c0.184,0,0.333-0.149,0.333-0.333S13.867,17.268,13.684,17.268L13.684,17.268z M13.684,17.268"/>
	<path fill="#E20C18" d="M14.78,17.366c-0.06,0.063-0.098,0.149-0.098,0.236c0,0.086,0.038,0.172,0.098,0.235
		c0.062,0.061,0.149,0.098,0.236,0.098c0.086,0,0.174-0.037,0.237-0.098c0.059-0.063,0.096-0.149,0.096-0.235
		c0-0.087-0.037-0.173-0.096-0.236C15.127,17.242,14.898,17.242,14.78,17.366L14.78,17.366z M14.78,17.366"/>
	<path fill="#E20C18" d="M21.351,14.268c-0.426,0-0.822,0.117-1.166,0.316c-0.346-0.199-0.742-0.316-1.167-0.316
		c-1.287,0-2.335,1.048-2.335,2.336c0,1.285,1.048,2.332,2.335,2.332c0.425,0,0.821-0.116,1.167-0.315
		c0.344,0.199,0.74,0.315,1.166,0.315c1.287,0,2.334-1.047,2.334-2.332C23.685,15.315,22.638,14.268,21.351,14.268L21.351,14.268z
		 M20.684,16.604c0,0.463-0.191,0.883-0.499,1.187c-0.31-0.304-0.501-0.724-0.501-1.187c0-0.467,0.191-0.886,0.501-1.189
		C20.492,15.718,20.684,16.137,20.684,16.604L20.684,16.604z M17.351,16.604c0-0.92,0.747-1.667,1.667-1.667
		c0.21,0,0.411,0.042,0.597,0.113c-0.37,0.414-0.597,0.955-0.597,1.554c0,0.596,0.227,1.137,0.597,1.551
		c-0.186,0.071-0.387,0.115-0.597,0.115C18.098,18.27,17.351,17.521,17.351,16.604L17.351,16.604z M21.351,18.27
		c-0.211,0-0.411-0.044-0.597-0.115c0.37-0.414,0.597-0.955,0.597-1.551c0-0.599-0.227-1.14-0.597-1.554
		c0.186-0.071,0.386-0.113,0.597-0.113c0.92,0,1.667,0.747,1.667,1.667C23.018,17.521,22.271,18.27,21.351,18.27L21.351,18.27z
		 M21.351,18.27"/>
	<path fill="#E20C18" d="M8.102,13.27h4.496c0.415,0,0.752-0.339,0.752-0.752V9.353c0-0.414-0.337-0.752-0.752-0.752H8.102
		c-0.415,0-0.752,0.339-0.752,0.752v3.165C7.35,12.931,7.687,13.27,8.102,13.27L8.102,13.27z M9.35,11.269H8.016v-0.667H9.35V11.269
		z M8.016,12.518v-0.583H9.35v0.583c0,0.028,0.005,0.057,0.008,0.084H8.102C8.055,12.602,8.016,12.564,8.016,12.518L8.016,12.518z
		 M12.684,11.269h-1.335v-0.583c0-0.045,0.039-0.084,0.086-0.084h1.163c0.029,0,0.057-0.006,0.086-0.008V11.269z M12.598,12.602
		h-1.257c0.003-0.027,0.008-0.056,0.008-0.084v-0.583h1.335v0.583C12.684,12.564,12.645,12.602,12.598,12.602L12.598,12.602z
		 M12.598,9.268c0.047,0,0.086,0.038,0.086,0.085v0.496c0,0.047-0.04,0.086-0.086,0.086h-1.163c-0.415,0-0.752,0.337-0.752,0.751
		v1.832c0,0.046-0.039,0.084-0.084,0.084h-0.498c-0.045,0-0.084-0.038-0.084-0.084V9.353c0-0.047,0.039-0.085,0.084-0.085H12.598z
		 M8.102,9.268h1.257C9.355,9.295,9.35,9.324,9.35,9.353v0.582H8.016V9.353C8.016,9.306,8.055,9.268,8.102,9.268L8.102,9.268z
		 M8.102,9.268"/>
</g>
</svg>
