<?xml version="1.0" encoding="utf-8"?>
<!-- Generator: Adobe Illustrator 19.0.0, SVG Export Plug-In . SVG Version: 6.00 Build 0)  -->
<svg version="1.1" id="Capa_1" xmlns="http://www.w3.org/2000/svg" xmlns:xlink="http://www.w3.org/1999/xlink" x="0px" y="0px"
	 viewBox="66 0 405.9 406" style="enable-background:new 66 0 405.9 406;" xml:space="preserve">
<g>
	<path d="M467.6,194.4c-3.1-3.3-7.4-5.2-11.9-5.2h-1.3c6-10.4,9.3-22.2,9.3-34.3c0-27.4-16.4-52-41.2-62.8
		c-0.6-37.3-31.1-67.5-68.5-67.5c-37.4,0-67.9,30.2-68.5,67.5c-1.4-0.3-2.8-0.5-4.3-0.5c-6.1,0-11.8,3-15.3,8l-1.7,2.4
		c-1.4,2-4,2.7-6.3,1.7l-2.7-1.2c-5.5-2.6-12-2.3-17.3,0.8c-5.3,3-8.8,8.5-9.3,14.6l-0.3,3c-0.1,1.1-0.6,2.5-1.2,4.1
		c-1.6-0.7-2.7-2.3-2.9-4.1l-0.3-2.9c-0.5-5.8-3.6-10.5-8-13.6l21.6-30.6c4.2-6,5.8-13.2,4.6-20.5c-1.3-7.2-5.2-13.5-11.2-17.7
		c-12.4-8.7-29.5-5.7-38.2,6.6l-39.5,56.1c-1.3,1.9-2.3,3.9-3.1,6c-0.6,0-1.3,0-2-0.4l-2.7-1.2c-5.5-2.6-12-2.3-17.3,0.8
		c-5.3,3-8.8,8.5-9.3,14.6l-0.3,3c-0.2,2.4-2.1,4.4-4.6,4.6l-2.9,0.3c-6.1,0.5-11.5,4-14.6,9.3c-3.1,5.3-3.3,11.7-0.8,17.3l1.2,2.7
		c1,2.2,0.3,4.9-1.7,6.3l-2.4,1.7c-5,3.5-8,9.3-8,15.4c0,4.1,1.4,7.9,3.8,11.1h-6.4c-4.5,0-8.8,1.9-11.9,5.2
		c-3.1,3.3-4.7,7.8-4.4,12.3c4.1,60,42.2,90.1,98.3,116.9c6.3,3,11.4,8,14.6,14c3.1,5.9,2.6,13.5-1.3,20c-2.9,4.9-3,10.8-0.2,15.7
		c2.8,5,7.9,7.9,13.6,7.9h156.3c5.7,0,10.8-3,13.6-7.9c2.8-5,2.7-10.8-0.3-15.8c-3.8-6.4-4.3-14-1.3-19.9c3.1-6,8.3-11,14.6-14
		c56-26.8,94.2-56.9,98.3-116.8C472.3,202.2,470.7,197.7,467.6,194.4z M450,155c0,12.5-4.3,24.5-12.1,34.3H402v-27.4
		c0-3.8-3.1-6.9-6.9-6.9s-6.9,3.1-6.9,6.9v27.4h-24.2c0.6-0.8,1-1.5,1.5-2.4c0,0,0-0.1,0.1-0.1c0.6-1.2,1-2.4,1.4-3.7
		c0.1-0.3,0.2-0.6,0.2-1c0.3-1.3,0.5-2.6,0.5-4c0-6.1-3-11.8-8-15.3l-1.6-1.1c0.5,0,1.1-0.1,1.6-0.2c0.8-0.1,1.6-0.2,2.5-0.3
		c1.4-0.2,2.7-0.4,4-0.6c0.8-0.1,1.6-0.3,2.3-0.4c1.4-0.3,2.8-0.7,4.2-1.1c0.6-0.2,1.3-0.3,1.9-0.5c2-0.6,3.9-1.3,5.7-2.1
		c0.5-0.2,1-0.5,1.5-0.7c1.4-0.6,2.7-1.2,4-1.9c0.7-0.4,1.4-0.8,2.2-1.2c1-0.6,2.1-1.2,3.1-1.9c0.8-0.5,1.5-1,2.2-1.5
		c0.9-0.7,1.8-1.3,2.7-2c0.7-0.6,1.5-1.1,2.2-1.7c0.8-0.7,1.6-1.5,2.5-2.2c0.7-0.6,1.4-1.3,2.1-2c0.8-0.8,1.5-1.6,2.2-2.4
		c1.4-1.5,2.7-3.1,3.9-4.8c0.4-0.6,0.9-1.1,1.3-1.7c0.7-1.1,1.4-2.2,2.1-3.3c0.3-0.6,0.7-1.1,1-1.7c0.7-1.2,1.3-2.4,1.9-3.7
		c0.2-0.5,0.5-1,0.7-1.5c0.6-1.4,1.2-2.7,1.8-4.2c0.1-0.3,0.2-0.6,0.3-0.9c1.2-3.3,2.3-6.8,3-10.3C438.7,116.3,450,134.7,450,155z
		 M354,38.4c30.2,0,54.9,24.6,54.9,54.9c0,1-0.1,2.1-0.2,3.1c0,0,0,0,0,0.1c-0.4,7.2-2.2,14-5.1,20.2c0,0.1-0.1,0.1-0.1,0.2
		c-0.7,1.4-1.4,2.8-2.2,4.1c-0.1,0.2-0.2,0.3-0.3,0.5c-0.7,1.2-1.5,2.4-2.4,3.6c-0.2,0.3-0.3,0.5-0.5,0.8c-0.8,1.1-1.6,2.1-2.5,3.1
		c-0.3,0.3-0.5,0.6-0.8,0.9c-0.8,0.9-1.7,1.8-2.5,2.6c-0.4,0.4-0.7,0.7-1.1,1.1c-0.8,0.8-1.7,1.5-2.6,2.2c-0.4,0.4-0.9,0.7-1.3,1.1
		c-0.8,0.6-1.7,1.2-2.6,1.9c-0.5,0.4-1,0.7-1.6,1.1c-0.9,0.5-1.7,1-2.6,1.5c-0.6,0.3-1.2,0.7-1.8,1c-0.9,0.4-1.8,0.8-2.6,1.2
		c-0.7,0.3-1.4,0.6-2,0.9c-0.9,0.3-1.8,0.6-2.7,0.9c-0.7,0.3-1.5,0.5-2.2,0.7c-0.9,0.3-1.8,0.4-2.6,0.7c-0.8,0.2-1.6,0.4-2.5,0.6
		c-0.9,0.2-1.7,0.3-2.6,0.4c-0.9,0.1-1.8,0.3-2.7,0.3c-0.2,0-0.4,0-0.5,0v0c0-0.1,0-0.2,0-0.3c0.2-1.2,0.3-2.5,0.3-3.8
		c0-0.4-0.1-0.8-0.1-1.2c-0.1-1-0.2-2-0.5-2.9c-0.1-0.4-0.2-0.8-0.3-1.1c-0.4-1.3-0.9-2.6-1.6-3.8c-3.1-5.3-8.5-8.8-14.6-9.3l-3-0.3
		c-1.8-0.2-3.4-1.3-4.1-2.9l14.7-14.6c2.7-2.7,2.7-7,0-9.7c-2.7-2.7-7-2.7-9.7,0l-9.8,9.8c-1.4-1.8-3.1-3.5-5.2-4.7
		c-1.4-0.8-2.9-1.4-4.4-1.8c-0.5-0.1-1-0.2-1.5-0.3c-1-0.2-2-0.4-3.1-0.4c-0.1,0-0.3-0.1-0.4-0.1c-0.8,0-1.6,0.2-2.3,0.3
		c-0.5,0.1-1,0.1-1.5,0.2c-1.4,0.3-2.8,0.7-4.1,1.3l-2.7,1.2c-0.7,0.3-1.4,0.4-2.1,0.4c0,0-0.1,0-0.1,0c-0.7,0-1.4-0.2-2.1-0.6
		c-0.7-3.5-1-6.9-1-10.2C299.1,63,323.7,38.4,354,38.4z M242,122l0.3-3c0.1-1.7,1.1-3.1,2.5-3.9c1.4-0.8,3.1-0.9,4.6-0.2l2.7,1.3
		c8.2,3.8,18,1.2,23.2-6.2l1.7-2.4c1.9-2.7,6.4-2.7,8.3,0l1.7,2.4c3.5,5,9,7.7,14.8,7.9c0.1,0,0.1,0,0.2,0c0.8,0,1.7,0,2.5-0.1
		c0.4,0,0.8-0.1,1.2-0.2c0.6-0.1,1.1-0.2,1.7-0.3c1-0.3,2-0.6,2.9-1l2.7-1.2c1.5-0.7,3.2-0.6,4.6,0.2c1.4,0.8,2.4,2.3,2.5,3.9
		l0.3,2.9c0.8,9,8,16.2,17,17l2.9,0.3c1.7,0.1,3.1,1.1,3.9,2.5c0.8,1.4,0.9,3.1,0.2,4.6l-1.3,2.7c-0.1,0.1-0.1,0.2-0.1,0.4
		c-2.4,5.6-1.9,11.8,1,16.8c0,0.1,0.1,0.1,0.1,0.2c0.4,0.6,0.8,1.2,1.2,1.8c0.2,0.3,0.5,0.6,0.8,0.9c0.3,0.4,0.7,0.8,1,1.1
		c0.7,0.7,1.4,1.3,2.3,1.9l2.4,1.7c1.4,1,2.1,2.5,2.1,4.1s-0.8,3.2-2.1,4.1l-2.4,1.7c0,0,0,0-0.1,0.1c-0.9,0.6-1.7,1.4-2.5,2.1
		c-0.3,0.3-0.6,0.7-0.8,1c-0.4,0.5-0.8,1-1.2,1.5c-0.1,0.2-0.3,0.4-0.4,0.6h-90.1c0.6-0.8,1-1.6,1.5-2.4c0,0,0-0.1,0.1-0.1
		c0.6-1.2,1-2.4,1.4-3.7c0.1-0.3,0.2-0.6,0.2-0.9c0.3-1.3,0.5-2.6,0.5-4v0l0,0l0,0c0-0.9-0.2-1.7-0.3-2.6c-0.1-0.6-0.1-1.3-0.2-1.9
		c-0.5-2-1.5-3.9-2.6-5.7c-1.3-2-2.8-3.8-4.8-5.2l-2.4-1.7c-2-1.4-2.7-4-1.7-6.2l1.3-2.7c0.6-1.3,1-2.7,1.3-4.1
		c0.1-0.4,0.1-0.8,0.1-1.3c0.1-1,0.2-2,0.2-3c0-0.5-0.1-1-0.2-1.5c-0.1-0.9-0.2-1.8-0.4-2.6c-0.1-0.6-0.3-1.1-0.5-1.6
		c-0.2-0.5-0.2-0.9-0.4-1.4c-0.1-0.3-0.3-0.5-0.5-0.7c-0.2-0.3-0.3-0.7-0.5-1.1c-0.4-0.6-0.9-1.1-1.3-1.7c-0.4-0.5-0.7-1-1.1-1.4
		c-0.8-0.9-1.8-1.7-2.8-2.4c-0.3-0.2-0.5-0.5-0.8-0.7C241.2,126.5,241.8,124.2,242,122z M204,49.9c4.4-6.2,12.9-7.7,19.1-3.3
		c3,2.1,5,5.3,5.6,8.9c0.6,3.6-0.2,7.3-2.3,10.2l-26.7,38c0,0,0,0,0,0l-12.7,18.1c-2.1,3-5.2,5-8.9,5.6c-3.6,0.6-7.3-0.2-10.2-2.3
		c0,0,0,0,0,0c-1-0.7-1.8-1.5-2.6-2.4c-0.2-0.2-0.4-0.5-0.5-0.7c-0.7-0.9-1.2-1.9-1.6-2.9c0-0.1-0.1-0.1-0.1-0.2
		c-0.4-1.1-0.7-2.2-0.8-3.4c0-0.3,0-0.6-0.1-0.9c-0.1-1.2,0-2.4,0.2-3.5c0.4-1.8,1.1-3.5,2.2-5.1L204,49.9z M103.2,184l-2.4-1.7
		c-1.4-1-2.1-2.5-2.1-4.1c0-1.7,0.8-3.2,2.1-4.1l2.4-1.7c7.4-5.2,10-15,6.2-23.2l-1.2-2.7c-0.7-1.5-0.6-3.2,0.2-4.7
		c0.8-1.4,2.3-2.4,3.9-2.5l2.9-0.3c9-0.8,16.2-8,17-17l0.3-3c0.1-1.7,1.1-3.1,2.5-3.9c1.4-0.8,3.1-0.9,4.6-0.2l2.7,1.3
		c2,0.9,4,1.4,6.2,1.6c0,0.1,0.1,0.3,0.1,0.4c0,0.1,0,0.2,0,0.4c0.1,0.8,0.4,1.5,0.6,2.3c0.2,0.9,0.4,1.8,0.7,2.6
		c0.4,1,0.9,2,1.4,2.9c0.3,0.6,0.6,1.3,1,1.9c0.7,1.1,1.5,2.1,2.3,3.1c0.3,0.4,0.6,0.9,1,1.3c1.3,1.3,2.7,2.6,4.2,3.6
		c1.4,1,2.8,1.7,4.3,2.4c0.5,0.2,0.9,0.4,1.4,0.6c1,0.4,2.1,0.8,3.2,1.1c0.5,0.1,1.1,0.3,1.7,0.4c1.2,0.2,2.3,0.4,3.5,0.4
		c0.4,0,0.9,0.1,1.3,0.1c0.1,0,0.2,0,0.3,0c1.6,0,3.2-0.1,4.8-0.4c7.2-1.3,13.5-5.2,17.7-11.2l10.1-14.3c1.1,0.8,2,2,2.2,3.7
		l0.3,2.9c0.8,9,8,16.2,17,17l2.9,0.3c0.6,0.1,1.2,0.3,1.8,0.6c0.3,0.1,0.5,0.3,0.8,0.4c0.4,0.3,0.7,0.6,1,1
		c0.2,0.2,0.4,0.4,0.5,0.7c0.3,0.6,0.6,1.3,0.6,2c0,0,0,0.1,0,0.1c0,0.8-0.1,1.5-0.5,2.3l-1.3,2.7c-1.4,3.1-2,6.4-1.7,9.6
		c0,0,0,0.1,0,0.1c0.1,1,0.3,2,0.5,3c1.1,4.1,3.6,7.9,7.3,10.5l1.7,1.2l0.8,0.5c1.4,1,2.2,2.5,2.2,4.2c0,0.8-0.2,1.6-0.6,2.3
		c-0.1,0.2-0.3,0.3-0.5,0.5c-0.3,0.5-0.6,0.9-1.1,1.3l-0.1,0.1l-2.3,1.6c-0.9,0.7-1.8,1.4-2.6,2.3c-0.2,0.3-0.4,0.5-0.7,0.8
		c-0.5,0.6-1,1.2-1.5,1.9c-0.1,0.1-0.2,0.2-0.2,0.3H108.2C106.9,187.2,105.2,185.4,103.2,184z M367.8,311.2
		c-8.9,4.3-16.3,11.4-20.8,20.1c-5.2,10.1-4.6,22.9,1.8,33.4c0.5,0.8,0.3,1.5,0,1.9c-0.2,0.4-0.7,1-1.6,1H190.9
		c-0.9,0-1.4-0.5-1.6-1c-0.2-0.4-0.4-1.1,0.1-2c6.3-10.4,6.9-23.2,1.7-33.3c-4.5-8.7-11.9-15.8-20.8-20.1
		c-53.2-25.4-86.9-51.9-90.5-105.4c-0.1-1,0.4-1.7,0.7-2c0.3-0.4,0.9-0.8,1.8-0.8h21.6h135.2h109.7h0.4H441h14.7
		c0.9,0,1.5,0.4,1.8,0.8c0.3,0.3,0.8,1,0.7,2C454.7,259.4,421,285.8,367.8,311.2z"/>
	<path d="M319.7,319.6H260c-3.8,0-6.9,3.1-6.9,6.9s3.1,6.9,6.9,6.9h59.7c3.8,0,6.9-3.1,6.9-6.9S323.5,319.6,319.7,319.6z"/>
	<path d="M216.9,333.3h23.2c3.8,0,6.9-3.1,6.9-6.9s-3.1-6.9-6.9-6.9h-23.2c-3.8,0-6.9,3.1-6.9,6.9S213.1,333.3,216.9,333.3z"/>
	<path d="M319.7,340.1H216.9c-3.8,0-6.9,3.1-6.9,6.9c0,3.8,3.1,6.9,6.9,6.9h102.9c3.8,0,6.9-3.1,6.9-6.9
		C326.6,343.2,323.5,340.1,319.7,340.1z"/>
	<path d="M339.4,88.4c1.3,1.3,3.1,2,4.8,2c1.8,0,3.5-0.7,4.8-2c2.7-2.7,2.7-7,0-9.7l-19.4-19.4c-2.7-2.7-7-2.7-9.7,0
		c-2.7,2.7-2.7,7,0,9.7L339.4,88.4z"/>
	<path d="M378.2,127.2c1.3,1.3,3.1,2,4.8,2s3.5-0.7,4.8-2c2.7-2.7,2.7-7,0-9.7l-19.4-19.4c-2.7-2.7-7-2.7-9.7,0
		c-2.7,2.7-2.7,7,0,9.7L378.2,127.2z"/>
	<path d="M363.7,90.5c1.8,0,3.5-0.7,4.8-2L387.9,69c2.7-2.7,2.7-7,0-9.7c-2.7-2.7-7-2.7-9.7,0l-19.4,19.4c-2.7,2.7-2.7,7,0,9.7
		C360.2,89.8,361.9,90.5,363.7,90.5z"/>
	<path d="M402,148.1c0,3.8,3.1,6.9,6.9,6.9h27.4c3.8,0,6.9-3.1,6.9-6.9c0-3.8-3.1-6.9-6.9-6.9h-27.4
		C405.1,141.3,402,144.4,402,148.1z"/>
	<path d="M275.1,151.6c1.8,0,3.5-0.7,4.8-2l10.3-10.3c2.7-2.7,2.7-7,0-9.7c-2.7-2.7-7-2.7-9.7,0l-10.3,10.3c-2.7,2.7-2.7,7,0,9.7
		C271.6,150.9,273.4,151.6,275.1,151.6z"/>
	<path d="M308,166.7c1.3,1.3,3.1,2,4.8,2c1.8,0,3.5-0.7,4.8-2c2.7-2.7,2.7-7,0-9.7l-6.9-6.9c-2.7-2.7-7-2.7-9.7,0
		c-2.7,2.7-2.7,7,0,9.7L308,166.7z"/>
	<path d="M280.6,163.9l-6.9,6.9c-2.7,2.7-2.7,7,0,9.7c1.3,1.3,3.1,2,4.8,2c1.8,0,3.5-0.7,4.8-2l6.9-6.9c2.7-2.7,2.7-7,0-9.7
		C287.6,161.2,283.2,161.2,280.6,163.9z"/>
</g>
</svg>
